{
    "projectName": "demo2",
    "version": "3.0",
    "frontend": "javascript",
    "javascript": {
        "framework": "vue",
        "config": {
            "SourceDir": "src",
            "DistributionDir": "dist",
            "BuildCommand": "npm run-script build",
            "StartCommand": "npm run-script serve"
        }
    },
    "providers": [
        "awscloudformation"
    ]
}